Step 3: Environmental Data Preparation
…
env_summary

# A tibble: 21 × 5
   variable          mean     sd     min    max
   <chr>            <dbl>  <dbl>   <dbl>  <dbl>
 1 PET_seasonality 5459.  479.   2683.   6743. 
 2 annual_PET      1031.  190.    575.   1681. 
 3 aridity_idx       31.9   8.86    0      74.3
 4 bio1              10.1   4.27   -1.29   24.3
 5 bio10            291.   54.6   131     601  
 6 bio11            198.   99.1    24     526  
 7 bio12             11.7   1.28    6.94   17.4
 8 bio13             31.4   5.08   20.3    55.6
 9 bio14            960.  160.    327.   1427. 
10 bio15             28.9   2.85   20.9    37.5
# ℹ 11 more rows
…
